[
  {
    "_id": "5e8e3b7d2fa5dbc178727188",
    "author": {
      "_id": "5e5dddaaa54d759da7eb3691",
      "activated": true,
      "auth_providers": {
        "github": {
          "foreign_avatar": null,
          "foreign_id": "16803839",
          "foreign_mail": "thomas.lombard@epitech.eu",
          "foreign_name": "lombar_e",
          "foreign_token": {
            "accesstoken": "a04331b5e2c0a23f1c1855e72127b38614350ecd",
            "expiry": "0001-01-01T00:00:00Z",
            "refreshtoken": "",
            "tokentype": "bearer"
          },
          "linked_at": "2020-03-16T19:06:45.289Z"
        }
      },
      "bundle_user_data": [
        {
          "_id": "5e72bc8fa54d755d60dfa381",
          "created_at": null,
          "done": false,
          "expiry": null,
          "file": null,
          "requested_at": "2020-03-19T00:27:59.235Z",
          "user_id": "5e5dddaaa54d759da7eb3691"
        },
        {
          "_id": "5e72c80fa54d757b6c005e91",
          "created_at": null,
          "done": false,
          "expiry": null,
          "file": null,
          "requested_at": "2020-03-19T01:17:03.848Z",
          "user_id": "5e5dddaaa54d759da7eb3691"
        },
        {
          "_id": "5e72cacfa54d7584b29ab7e9",
          "created_at": null,
          "done": false,
          "expiry": null,
          "file": null,
          "requested_at": "2020-03-19T01:28:47.815Z",
          "user_id": "5e5dddaaa54d759da7eb3691"
        },
        {
          "_id": "5e72cbe9a54d7504e0c35a89",
          "created_at": "2020-03-19T01:40:31.47Z",
          "done": true,
          "expiry": "2020-02-18T01:40:31.47Z",
          "file": null,
          "requested_at": "2020-03-19T01:33:29.775Z",
          "user_id": "5e5dddaaa54d759da7eb3691"
        },
        {
          "_id": "5e72cce0a54d75052ae7ed2e",
          "created_at": "2020-03-19T01:40:36.62Z",
          "done": true,
          "expiry": "2020-04-18T01:40:36.62Z",
          "file": "ccc14d46-a51e-4e8a-9190-88290474a4b5",
          "requested_at": "2020-03-19T01:35:46.137Z",
          "user_id": "5e5dddaaa54d759da7eb3691"
        },
        {
          "_id": "5e73f5b4a54d75338dc8e7f1",
          "created_at": null,
          "done": false,
          "expiry": null,
          "file": null,
          "requested_at": "2020-03-19T22:44:04.534Z",
          "user_id": "5e5dddaaa54d759da7eb3691"
        }
      ],
      "firstname": "Jean",
      "friends_ids": [],
      "hash": "$2a$10$fEi6fI8FHpD1ZwiJEzb/wOTDnZ9OGNIfYETlnCRmnQKF5jhuMbi6K",
      "last_sign_in": "2020-04-08T18:11:51.717Z",
      "lastname": "Paul",
      "mail": "toto@mail.com",
      "name": "username",
      "phone_number": {
        "international": "+33123456789",
        "iso_code": "FR",
        "number": "0123456789"
      },
      "profile_picture": "000000000000000000000001",
      "public": true,
      "publication_ids": [
        "5e5e8f00a54d752f51fcfe49",
        "5e5e8f02a54d752f51fcfe4b",
        "5e73039fa54d759c5b519e8a",
        "5e758532a54d75cc009b9951",
        "5e7668cba54d75dd78baf7e2"
      ],
      "rate_limit": {
        "limit": 2000,
        "remaining": 1997,
        "reset": "2020-04-08T23:12:37.763Z"
      },
      "registration_date": "2020-03-03T04:31:38.931Z",
      "roles": [
        "ROLE_USER"
      ]
    },
    "created_at": "2020-04-08T21:00:45.785Z",
    "likes": [
      {
        "_id": "5e5dddaaa54d759da7eb3691",
        "activated": true,
        "auth_providers": {
          "github": {
            "foreign_avatar": null,
            "foreign_id": "16803839",
            "foreign_mail": "thomas.lombard@epitech.eu",
            "foreign_name": "lombar_e",
            "foreign_token": {
              "accesstoken": "a04331b5e2c0a23f1c1855e72127b38614350ecd",
              "expiry": "0001-01-01T00:00:00Z",
              "refreshtoken": "",
              "tokentype": "bearer"
            },
            "linked_at": "2020-03-16T19:06:45.289Z"
          }
        },
        "bundle_user_data": [
          {
            "_id": "5e72bc8fa54d755d60dfa381",
            "created_at": null,
            "done": false,
            "expiry": null,
            "file": null,
            "requested_at": "2020-03-19T00:27:59.235Z",
            "user_id": "5e5dddaaa54d759da7eb3691"
          },
          {
            "_id": "5e72c80fa54d757b6c005e91",
            "created_at": null,
            "done": false,
            "expiry": null,
            "file": null,
            "requested_at": "2020-03-19T01:17:03.848Z",
            "user_id": "5e5dddaaa54d759da7eb3691"
          },
          {
            "_id": "5e72cacfa54d7584b29ab7e9",
            "created_at": null,
            "done": false,
            "expiry": null,
            "file": null,
            "requested_at": "2020-03-19T01:28:47.815Z",
            "user_id": "5e5dddaaa54d759da7eb3691"
          },
          {
            "_id": "5e72cbe9a54d7504e0c35a89",
            "created_at": "2020-03-19T01:40:31.47Z",
            "done": true,
            "expiry": "2020-02-18T01:40:31.47Z",
            "file": null,
            "requested_at": "2020-03-19T01:33:29.775Z",
            "user_id": "5e5dddaaa54d759da7eb3691"
          },
          {
            "_id": "5e72cce0a54d75052ae7ed2e",
            "created_at": "2020-03-19T01:40:36.62Z",
            "done": true,
            "expiry": "2020-04-18T01:40:36.62Z",
            "file": "ccc14d46-a51e-4e8a-9190-88290474a4b5",
            "requested_at": "2020-03-19T01:35:46.137Z",
            "user_id": "5e5dddaaa54d759da7eb3691"
          },
          {
            "_id": "5e73f5b4a54d75338dc8e7f1",
            "created_at": null,
            "done": false,
            "expiry": null,
            "file": null,
            "requested_at": "2020-03-19T22:44:04.534Z",
            "user_id": "5e5dddaaa54d759da7eb3691"
          }
        ],
        "firstname": "Jean",
        "friends_ids": [],
        "hash": "$2a$10$fEi6fI8FHpD1ZwiJEzb/wOTDnZ9OGNIfYETlnCRmnQKF5jhuMbi6K",
        "last_sign_in": "2020-04-08T18:11:51.717Z",
        "lastname": "Paul",
        "mail": "toto@mail.com",
        "name": "username",
        "phone_number": {
          "international": "+33123456789",
          "iso_code": "FR",
          "number": "0123456789"
        },
        "profile_picture": "000000000000000000000001",
        "public": true,
        "publication_ids": [
          "5e5e8f00a54d752f51fcfe49",
          "5e5e8f02a54d752f51fcfe4b",
          "5e73039fa54d759c5b519e8a",
          "5e758532a54d75cc009b9951",
          "5e7668cba54d75dd78baf7e2"
        ],
        "rate_limit": {
          "limit": 2000,
          "remaining": 1997,
          "reset": "2020-04-08T23:12:37.763Z"
        },
        "registration_date": "2020-03-03T04:31:38.931Z",
        "roles": [
          "ROLE_USER"
        ]
      }
    ],
    "replies": [
      {
        "_id": "5e8e3cea2fa5dbc178727189",
        "author": {
          "_id": "5e5dddaaa54d759da7eb3691",
          "activated": true,
          "auth_providers": {
            "github": {
              "foreign_avatar": null,
              "foreign_id": "16803839",
              "foreign_mail": "thomas.lombard@epitech.eu",
              "foreign_name": "lombar_e",
              "foreign_token": {
                "accesstoken": "a04331b5e2c0a23f1c1855e72127b38614350ecd",
                "expiry": "0001-01-01T00:00:00Z",
                "refreshtoken": "",
                "tokentype": "bearer"
              },
              "linked_at": "2020-03-16T19:06:45.289Z"
            }
          },
          "bundle_user_data": [
            {
              "_id": "5e72bc8fa54d755d60dfa381",
              "created_at": null,
              "done": false,
              "expiry": null,
              "file": null,
              "requested_at": "2020-03-19T00:27:59.235Z",
              "user_id": "5e5dddaaa54d759da7eb3691"
            },
            {
              "_id": "5e72c80fa54d757b6c005e91",
              "created_at": null,
              "done": false,
              "expiry": null,
              "file": null,
              "requested_at": "2020-03-19T01:17:03.848Z",
              "user_id": "5e5dddaaa54d759da7eb3691"
            },
            {
              "_id": "5e72cacfa54d7584b29ab7e9",
              "created_at": null,
              "done": false,
              "expiry": null,
              "file": null,
              "requested_at": "2020-03-19T01:28:47.815Z",
              "user_id": "5e5dddaaa54d759da7eb3691"
            },
            {
              "_id": "5e72cbe9a54d7504e0c35a89",
              "created_at": "2020-03-19T01:40:31.47Z",
              "done": true,
              "expiry": "2020-02-18T01:40:31.47Z",
              "file": null,
              "requested_at": "2020-03-19T01:33:29.775Z",
              "user_id": "5e5dddaaa54d759da7eb3691"
            },
            {
              "_id": "5e72cce0a54d75052ae7ed2e",
              "created_at": "2020-03-19T01:40:36.62Z",
              "done": true,
              "expiry": "2020-04-18T01:40:36.62Z",
              "file": "ccc14d46-a51e-4e8a-9190-88290474a4b5",
              "requested_at": "2020-03-19T01:35:46.137Z",
              "user_id": "5e5dddaaa54d759da7eb3691"
            },
            {
              "_id": "5e73f5b4a54d75338dc8e7f1",
              "created_at": null,
              "done": false,
              "expiry": null,
              "file": null,
              "requested_at": "2020-03-19T22:44:04.534Z",
              "user_id": "5e5dddaaa54d759da7eb3691"
            }
          ],
          "firstname": "Jean",
          "friends_ids": [],
          "hash": "$2a$10$fEi6fI8FHpD1ZwiJEzb/wOTDnZ9OGNIfYETlnCRmnQKF5jhuMbi6K",
          "last_sign_in": "2020-04-08T18:11:51.717Z",
          "lastname": "Paul",
          "mail": "toto@mail.com",
          "name": "username",
          "phone_number": {
            "international": "+33123456789",
            "iso_code": "FR",
            "number": "0123456789"
          },
          "profile_picture": "000000000000000000000001",
          "public": true,
          "publication_ids": [
            "5e5e8f00a54d752f51fcfe49",
            "5e5e8f02a54d752f51fcfe4b",
            "5e73039fa54d759c5b519e8a",
            "5e758532a54d75cc009b9951",
            "5e7668cba54d75dd78baf7e2"
          ],
          "rate_limit": {
            "limit": 2000,
            "remaining": 1997,
            "reset": "2020-04-08T23:12:37.763Z"
          },
          "registration_date": "2020-03-03T04:31:38.931Z",
          "roles": [
            "ROLE_USER"
          ]
        },
        "created_at": "2020-04-08T21:06:50.892Z",
        "likes": [
          {
            "_id": "5e5dddaaa54d759da7eb3691",
            "activated": true,
            "auth_providers": {
              "github": {
                "foreign_avatar": null,
                "foreign_id": "16803839",
                "foreign_mail": "thomas.lombard@epitech.eu",
                "foreign_name": "lombar_e",
                "foreign_token": {
                  "accesstoken": "a04331b5e2c0a23f1c1855e72127b38614350ecd",
                  "expiry": "0001-01-01T00:00:00Z",
                  "refreshtoken": "",
                  "tokentype": "bearer"
                },
                "linked_at": "2020-03-16T19:06:45.289Z"
              }
            },
            "bundle_user_data": [
              {
                "_id": "5e72bc8fa54d755d60dfa381",
                "created_at": null,
                "done": false,
                "expiry": null,
                "file": null,
                "requested_at": "2020-03-19T00:27:59.235Z",
                "user_id": "5e5dddaaa54d759da7eb3691"
              },
              {
                "_id": "5e72c80fa54d757b6c005e91",
                "created_at": null,
                "done": false,
                "expiry": null,
                "file": null,
                "requested_at": "2020-03-19T01:17:03.848Z",
                "user_id": "5e5dddaaa54d759da7eb3691"
              },
              {
                "_id": "5e72cacfa54d7584b29ab7e9",
                "created_at": null,
                "done": false,
                "expiry": null,
                "file": null,
                "requested_at": "2020-03-19T01:28:47.815Z",
                "user_id": "5e5dddaaa54d759da7eb3691"
              },
              {
                "_id": "5e72cbe9a54d7504e0c35a89",
                "created_at": "2020-03-19T01:40:31.47Z",
                "done": true,
                "expiry": "2020-02-18T01:40:31.47Z",
                "file": null,
                "requested_at": "2020-03-19T01:33:29.775Z",
                "user_id": "5e5dddaaa54d759da7eb3691"
              },
              {
                "_id": "5e72cce0a54d75052ae7ed2e",
                "created_at": "2020-03-19T01:40:36.62Z",
                "done": true,
                "expiry": "2020-04-18T01:40:36.62Z",
                "file": "ccc14d46-a51e-4e8a-9190-88290474a4b5",
                "requested_at": "2020-03-19T01:35:46.137Z",
                "user_id": "5e5dddaaa54d759da7eb3691"
              },
              {
                "_id": "5e73f5b4a54d75338dc8e7f1",
                "created_at": null,
                "done": false,
                "expiry": null,
                "file": null,
                "requested_at": "2020-03-19T22:44:04.534Z",
                "user_id": "5e5dddaaa54d759da7eb3691"
              }
            ],
            "firstname": "Jean",
            "friends_ids": [],
            "hash": "$2a$10$fEi6fI8FHpD1ZwiJEzb/wOTDnZ9OGNIfYETlnCRmnQKF5jhuMbi6K",
            "last_sign_in": "2020-04-08T18:11:51.717Z",
            "lastname": "Paul",
            "mail": "toto@mail.com",
            "name": "username",
            "phone_number": {
              "international": "+33123456789",
              "iso_code": "FR",
              "number": "0123456789"
            },
            "profile_picture": "000000000000000000000001",
            "public": true,
            "publication_ids": [
              "5e5e8f00a54d752f51fcfe49",
              "5e5e8f02a54d752f51fcfe4b",
              "5e73039fa54d759c5b519e8a",
              "5e758532a54d75cc009b9951",
              "5e7668cba54d75dd78baf7e2"
            ],
            "rate_limit": {
              "limit": 2000,
              "remaining": 1997,
              "reset": "2020-04-08T23:12:37.763Z"
            },
            "registration_date": "2020-03-03T04:31:38.931Z",
            "roles": [
              "ROLE_USER"
            ]
          }
        ],
        "nb_likes": 1,
        "text": "Commentaire",
        "updated_at": null
      }
    ],
    "text": "Commentaire",
    "updated_at": null
  }
]
